/Training_Workspace/PollWebApp/PollWeb/src/main/java/com/peacocktech/connectionpool/ConnectionPoolUsingBds.java
/Training_Workspace/PollWebApp/PollWeb/src/main/java/com/peacocktech/pollweb/pollresult/ResultServlet.java
/Training_Workspace/PollWebApp/PollWeb/src/main/java/com/peacocktech/connectionpool/GetProperty.java
