/Users/peacock/Downloads/connectionpool/src/main/java/com/peacocktech/connectionpool/GetProperty.java
/Users/peacock/Downloads/connectionpool/src/main/java/com/peacock/crudoperation/CrudMethods.java
/Users/peacock/Downloads/connectionpool/src/main/java/com/peacocktech/connectionpool/ConnectionPoolUsingBds.java
