-------------------------------------------------------------------------------
Test set: com.peacocktech.cirularqeue.QueueListTest
-------------------------------------------------------------------------------
Tests run: 3, Failures: 0, Errors: 0, Skipped: 0, Time elapsed: 0.032 sec
