/24_june/cirularqeue/src/main/java/com/peacocktech/cirularqeue/QueueList.java
/24_june/cirularqeue/src/main/java/com/peacocktech/cirularqeue/Node.java
/24_june/cirularqeue/src/main/java/com/peacocktech/cirularqeue/App.java
