-------------------------------------------------------------------------------
Test set: com.peacocktech.connectionpool.TestConnectionPool
-------------------------------------------------------------------------------
Tests run: 1, Failures: 0, Errors: 0, Skipped: 0, Time elapsed: 28.329 sec
